<svg xmlns="http://www.w3.org/2000/svg" width="17.787" height="14.903" viewBox="0 0 17.787 14.903">
  <g id="Group_802" data-name="Group 802" transform="translate(-9172.316 -796.431)">
    <path id="Path_2138" data-name="Path 2138" d="M9172.316,803.361a4.742,4.742,0,0,1,.347-.444q3.078-3.087,6.161-6.167c.041-.041.081-.083.124-.123a.588.588,0,0,1,.881.005q2.123,2.115,4.236,4.237a.6.6,0,0,1,0,.882.662.662,0,0,1-.555.239c-1.614-.012-3.229-.005-4.845-.007a1.008,1.008,0,0,0-1.016.585,1.433,1.433,0,0,0-.1.572c-.008,1.644,0,3.288,0,4.932,0,.212-.041.26-.249.293a.617.617,0,0,1-.564-.2c-.388-.391-.777-.779-1.166-1.168q-1.462-1.461-2.92-2.925a3.89,3.89,0,0,1-.33-.436Zm7.67-1.557,1.668-1.659-1.082-1.1-1.67,1.667Z" fill="#008a83"/>
    <path id="Path_2139" data-name="Path 2139" d="M9184.213,811.33q-2.231,0-4.462,0a1.267,1.267,0,0,1-1.255-.731,1.464,1.464,0,0,1-.134-.6q-.016-2.987,0-5.973a1.28,1.28,0,0,1,1.282-1.334c.053,0,.1,0,.156,0q4.437,0,8.873,0a1.364,1.364,0,0,1,1.17.523,1.285,1.285,0,0,1,.261.793c0,2,.006,4.005,0,6.008a1.264,1.264,0,0,1-1.251,1.309c-.49.024-.983.009-1.475.009Zm5.331-4.308h-10.625c0,1.035,0,2.059,0,3.083a.668.668,0,0,0,.3.526.874.874,0,0,0,.562.138h8.056c.324,0,.649.006.972,0a.724.724,0,0,0,.733-.726c.007-.162,0-.324,0-.486Zm0-1.476c0-.493,0-.967,0-1.44a.755.755,0,0,0-.852-.855h-9.014a.727.727,0,0,0-.762.764c0,.429,0,.857,0,1.285v.245Z" fill="#008a83"/>
  </g>
</svg>
