<svg xmlns="http://www.w3.org/2000/svg" width="23.026" height="19.198" viewBox="0 0 23.026 19.198">
  <g id="Group_305" data-name="Group 305" transform="translate(-2247.702 -387.544)">
    <path id="Path_835" data-name="Path 835" d="M2255.371,400.98h-.313c-2.1,0-4.2-.005-6.293,0a.97.97,0,0,1-.994-.612,1.134,1.134,0,0,1-.067-.431q0-2.815,0-5.63a.947.947,0,0,1,1.023-1h6.641v-.29c0-1.329,0-2.657,0-3.986a.948.948,0,0,1,.555-.9.849.849,0,0,1,1.017.14c.49.456.956.938,1.43,1.411q3.355,3.355,6.712,6.708a1.013,1.013,0,0,1-.028,1.546q-4.006,3.965-7.976,7.968a.96.96,0,0,1-1.083.3,1.055,1.055,0,0,1-.632-1.017C2255.383,403.8,2255.371,402.406,2255.371,400.98Z" fill="#008a83"/>
    <path id="Path_836" data-name="Path 836" d="M2268.8,397.148v-5.165a2.4,2.4,0,0,0-2.072-2.485,1.61,1.61,0,0,0-.287-.016q-2.293,0-4.588,0a1.622,1.622,0,0,1-.362-.036c-.22-.053-.372-.16-.358-.429.018-.329-.018-.661.011-.987.033-.358.186-.474.554-.479.445-.005.889,0,1.334,0,1.157,0,2.316-.017,3.473.012a4.29,4.29,0,0,1,4.1,3.3,4.8,4.8,0,0,1,.121,1.061q.014,5.217,0,10.435a4.3,4.3,0,0,1-3.165,4.234,3.5,3.5,0,0,1-.948.147c-1.634.014-3.269.007-4.9.006-.4,0-.561-.144-.575-.538a7.7,7.7,0,0,1,.012-.935c.025-.295.162-.411.452-.446a2.288,2.288,0,0,1,.262-.006h4.536a2.371,2.371,0,0,0,2.4-2.395C2268.8,400.662,2268.8,398.9,2268.8,397.148Z" fill="#008a83"/>
  </g>
</svg>
