<svg xmlns="http://www.w3.org/2000/svg" width="16.007" height="15.232" viewBox="0 0 16.007 15.232">
  <path id="Path_867" data-name="Path 867" d="M2309.392,504.324a56.6,56.6,0,0,0-8.283,10.838l-1.868-3.476c-.585-1.087-3.669-.333-2.983.945l3.207,5.966c.472.877,2.469.6,2.921-.184a60.462,60.462,0,0,1,9.423-13.053C2313.171,504.01,2310.263,503.459,2309.392,504.324Z" transform="translate(-2296.159 -503.908)" fill="#008a83"/>
</svg>
