<svg xmlns="http://www.w3.org/2000/svg" width="22.1" height="26.393" viewBox="0 0 22.1 26.393">
  <g id="Group_292" data-name="Group 292" transform="translate(-1353.381 -383.946)">
    <path id="Path_822" data-name="Path 822" d="M1362.364,391.126a1.984,1.984,0,1,0-1.983-1.984A1.986,1.986,0,0,0,1362.364,391.126Zm0-3.065a1.081,1.081,0,1,1-1.081,1.081A1.082,1.082,0,0,1,1362.364,388.061Z" fill="#fff"/>
    <path id="Path_823" data-name="Path 823" d="M1359.085,395.831a.451.451,0,0,0,.452-.451v-1.771a1.209,1.209,0,0,1,1.207-1.208h3.24a1.209,1.209,0,0,1,1.208,1.208v1.771a.451.451,0,1,0,.9,0v-1.771a2.112,2.112,0,0,0-2.11-2.109h-3.24a2.111,2.111,0,0,0-2.109,2.109v1.771A.45.45,0,0,0,1359.085,395.831Z" fill="#fff"/>
    <path id="Path_824" data-name="Path 824" d="M1360.5,394.745v.635a.451.451,0,1,0,.9,0v-.635a.451.451,0,1,0-.9,0Z" fill="#fff"/>
    <path id="Path_825" data-name="Path 825" d="M1363.325,394.745v.635a.451.451,0,0,0,.9,0v-.635a.451.451,0,0,0-.9,0Z" fill="#fff"/>
    <path id="Path_826" data-name="Path 826" d="M1356.388,397.523h11.952a.451.451,0,1,0,0-.9h-11.952a.451.451,0,0,0,0,.9Z" fill="#fff"/>
    <path id="Path_827" data-name="Path 827" d="M1356.388,399.891h11.952a.451.451,0,1,0,0-.9h-11.952a.451.451,0,0,0,0,.9Z" fill="#fff"/>
    <path id="Path_828" data-name="Path 828" d="M1373.229,401.829V384.4a.45.45,0,0,0-.451-.451h-17.063a.45.45,0,0,0-.451.451v1.221h-1.432a.451.451,0,0,0-.451.451V409.6a.451.451,0,0,0,.451.451h15.506a4.565,4.565,0,0,0,3.891-8.22Zm-17.063-16.981h16.161V401.4c-.071-.023-.146-.026-.218-.046a4.371,4.371,0,0,0-.55-.116c-.071-.011-.14-.038-.212-.045V386.069a.451.451,0,0,0-.451-.451h-14.73Zm11.643,24.3h-13.526V386.52h16.162v14.672c-.087.008-.168.035-.253.049-.134.021-.265.044-.394.076-.066.016-.135.021-.2.04h-13.21a.451.451,0,0,0,0,.9h11.567c-.031.025-.058.053-.088.08-.094.083-.19.163-.277.254a4.678,4.678,0,0,0-.311.376c-.074.1-.154.189-.221.291a4.914,4.914,0,0,0-.246.452l-.006.013h-10.418a.451.451,0,0,0,0,.9h10.08c-.02.078-.051.151-.067.231a4.637,4.637,0,0,0-.09.9c0,.116.026.225.034.338h-9.957a.451.451,0,0,0,0,.9H1366.5c.013.046.03.09.044.135a4.358,4.358,0,0,0,.141.434,4.607,4.607,0,0,0,.26.479c.06.1.112.212.179.31a4.586,4.586,0,0,0,.334.4c.087.1.168.2.262.292C1367.753,409.08,1367.776,409.117,1367.809,409.147Zm3.087.29a3.66,3.66,0,0,1-1.383-.274c-.068-.028-.13-.064-.195-.094a3.9,3.9,0,0,1-.4-.216c-.057-.037-.112-.076-.168-.115a3.873,3.873,0,0,1-.4-.327c-.029-.028-.06-.054-.089-.083a3.721,3.721,0,0,1-.74-1.094c-.019-.044-.035-.089-.052-.133a3.65,3.65,0,0,1-.156-.5c-.013-.057-.028-.113-.039-.171a3.662,3.662,0,0,1,4.424-4.262c.073.017.142.046.214.067a3.721,3.721,0,0,1,.558.209,3.674,3.674,0,0,1-1.581,6.994Z" fill="#fff"/>
    <path id="Path_829" data-name="Path 829" d="M1372.42,404.208l-1.93,2.513-1.251-1.712a.451.451,0,0,0-.729.532l1.607,2.2a.451.451,0,0,0,.722.009l2.3-2.991a.451.451,0,1,0-.716-.55Z" fill="#fff"/>
  </g>
</svg>
