<svg xmlns="http://www.w3.org/2000/svg" width="15.335" height="15.661" viewBox="0 0 15.335 15.661">
  <g id="Group_324" data-name="Group 324" transform="translate(-1843.125 -503.908)">
    <path id="Path_849" data-name="Path 849" d="M1846.334,505.5c.043.666-.106,1.361.482,1.774a1.83,1.83,0,0,0,.855.3,1.036,1.036,0,0,0,1.106-.682,7.3,7.3,0,0,0,.241-1.363h3.609c.036.639-.1,1.331.478,1.746a1.826,1.826,0,0,0,.856.3,1.036,1.036,0,0,0,1.107-.682,6.959,6.959,0,0,0,.24-1.34,12.135,12.135,0,0,1,1.867.02,1.659,1.659,0,0,1,1.275,1.661c.01,3.372.017,6.745-.005,10.117a2.217,2.217,0,0,1-2.153,2.208q-5.5.028-11,0a2.23,2.23,0,0,1-2.159-2.255q-.021-5.007,0-10.016a1.718,1.718,0,0,1,1.66-1.779C1845.294,505.479,1845.8,505.5,1846.334,505.5Zm4.458,4.987q-2.8,0-5.6,0c-.661,0-.786.127-.787.79q0,2.745,0,5.49c0,.926.43,1.366,1.326,1.367h10.114c.9,0,1.326-.442,1.328-1.366q.006-2.72,0-5.439c0-.727-.116-.842-.838-.842Z" fill="#008a83"/>
    <path id="Path_850" data-name="Path 850" d="M1846.858,505.445c0-.254-.015-.508,0-.761a.777.777,0,0,1,.8-.776.76.76,0,0,1,.765.76c.022.54.023,1.083,0,1.624a.784.784,0,0,1-1.568.016C1846.842,506.022,1846.858,505.733,1846.858,505.445Z" fill="#008a83"/>
    <path id="Path_851" data-name="Path 851" d="M1854.725,505.483c0,.271.014.542,0,.812a.76.76,0,0,1-.805.767.748.748,0,0,1-.762-.758c-.022-.54-.021-1.083,0-1.623a.784.784,0,0,1,1.567-.009C1854.739,504.941,1854.724,505.213,1854.725,505.483Z" fill="#008a83"/>
    <path id="Path_852" data-name="Path 852" d="M1855.905,511.564v1.353h-1.394v-1.353Z" fill="#008a83"/>
    <path id="Path_853" data-name="Path 853" d="M1855.892,513.623v1.359h-1.4v-1.359Z" fill="#008a83"/>
    <path id="Path_854" data-name="Path 854" d="M1853.743,511.564v1.353h-1.394v-1.353Z" fill="#008a83"/>
    <path id="Path_855" data-name="Path 855" d="M1853.731,513.623v1.359h-1.395v-1.359Z" fill="#008a83"/>
    <path id="Path_856" data-name="Path 856" d="M1851.582,511.564v1.353h-1.394v-1.353Z" fill="#008a83"/>
    <path id="Path_857" data-name="Path 857" d="M1851.569,513.623v1.359h-1.4v-1.359Z" fill="#008a83"/>
    <path id="Path_858" data-name="Path 858" d="M1849.42,511.564v1.353h-1.394v-1.353Z" fill="#008a83"/>
    <path id="Path_859" data-name="Path 859" d="M1849.408,513.623v1.359h-1.4v-1.359Z" fill="#008a83"/>
    <path id="Path_860" data-name="Path 860" d="M1847.258,511.564v1.353h-1.393v-1.353Z" fill="#008a83"/>
    <path id="Path_861" data-name="Path 861" d="M1847.246,513.623v1.359h-1.4v-1.359Z" fill="#008a83"/>
    <path id="Path_862" data-name="Path 862" d="M1855.892,515.658v1.359h-1.4v-1.359Z" fill="#008a83"/>
    <path id="Path_863" data-name="Path 863" d="M1853.731,515.658v1.359h-1.395v-1.359Z" fill="#008a83"/>
    <path id="Path_864" data-name="Path 864" d="M1851.569,515.658v1.359h-1.4v-1.359Z" fill="#008a83"/>
    <path id="Path_865" data-name="Path 865" d="M1849.408,515.658v1.359h-1.4v-1.359Z" fill="#008a83"/>
    <path id="Path_866" data-name="Path 866" d="M1847.246,515.658v1.359h-1.4v-1.359Z" fill="#008a83"/>
  </g>
</svg>
